{
    "code": 200,
    "message": "成功",
    "data": {
        "trademarkList": [{
                "tmId": 1,
                "tmName": "小米"
            },
            {
                "tmId": 6,
                "tmName": "VIVO"
            },
            {
                "tmId": 3,
                "tmName": "华为"
            },
            {
                "tmId": 2,
                "tmName": "苹果"
            },
            {
                "tmId": 5,
                "tmName": "OPPO"
            },
            {
                "tmId": 7,
                "tmName": "三星"
            },
            {
                "tmId": 27,
                "tmName": "戴尔"
            },
            {
                "tmId": 24,
                "tmName": "联想"
            },
            {
                "tmId": 26,
                "tmName": "海信"
            }
        ],
        "attrsList": [{
                "attrId": 106,
                "attrValueList": [
                    "安卓手机",
                    "苹果手机"
                ],
                "attrName": "手机一级"
            },
            {
                "attrId": 107,
                "attrValueList": [
                    "小米",
                    "华为",
                    "苹果"
                ],
                "attrName": "二级手机"
            },
            {
                "attrId": 23,
                "attrValueList": [
                    "8G",
                    "4G",
                    "6G",
                    "12G",
                    "256G",
                    "3G"
                ],
                "attrName": "运行内存"
            },
            {
                "attrId": 24,
                "attrValueList": [
                    "128G",
                    "256G",
                    "512G",
                    "32G",
                    "64G"
                ],
                "attrName": "机身内存"
            },
            {
                "attrId": 112,
                "attrValueList": [
                    "6.0-6.24英寸",
                    "6.85-6.94英寸",
                    " 6.75-6.84英寸",
                    "6.55-6.64英寸",
                    "6.65-6.74英寸",
                    "6.95英寸及以上"
                ],
                "attrName": "屏幕尺寸"
            },
            {
                "attrId": 111,
                "attrValueList": [
                    "骁龙845",
                    "麒麟990",
                    "骁龙439",
                    "骁龙730G"
                ],
                "attrName": "CPU型号"
            },
            {
                "attrId": 25,
                "attrValueList": [
                    "i5"
                ],
                "attrName": "处理器"
            },
            {
                "attrId": 26,
                "attrValueList": [
                    "14.0"
                ],
                "attrName": "屏幕尺寸"
            }
        ],
        "goodsList": [{
                "id": 30,
                "defaultImg": "http://47.93.148.192:8080/group1/M00/00/01/rBHu8l-rgJqAHPnoAAF9hoDNfsc505.jpg",
                "title": "Redmi 10X 4G Helio G85游戏芯 4800万超清四摄 5020mAh大电量 小孔全面屏 128GB大存储 4GB+128GB 冰雾白 游戏智能手机 小米 红米",
                "price": 999,
                "createTime": null,
                "tmId": null,
                "tmName": null,
                "category1Id": null,
                "category1Name": null,
                "category2Id": null,
                "category2Name": null,
                "category3Id": null,
                "category3Name": null,
                "hotScore": 0,
                "attrs": null
            },
            {
                "id": 25,
                "defaultImg": "http://47.93.148.192:8080/group1/M00/00/01/rBHu8l-rfvmAcbl2AAFopp2WGBQ404.jpg",
                "title": "小米10 至尊纪念版 双模5G 骁龙865 120HZ高刷新率 120倍长焦镜头 120W快充 12GB+256GB 陶瓷黑 游戏手机",
                "price": 6999,
                "createTime": null,
                "tmId": null,
                "tmName": null,
                "category1Id": null,
                "category1Name": null,
                "category2Id": null,
                "category2Name": null,
                "category3Id": null,
                "category3Name": null,
                "hotScore": 0,
                "attrs": null
            },
            {
                "id": 3,
                "defaultImg": "http://47.93.148.192:8080/group1/M00/00/02/rBHu8l-sklaAbYPbAAHJf20K7J4980.jpg",
                "title": "华为 HUAWEI P40 麒麟990 5G SoC芯片 5000万超感知徕卡三摄 30倍数字变焦 8GB+128GB冰霜银全网通5G手机",
                "price": 4488,
                "createTime": null,
                "tmId": null,
                "tmName": null,
                "category1Id": null,
                "category1Name": null,
                "category2Id": null,
                "category2Name": null,
                "category3Id": null,
                "category3Name": null,
                "hotScore": 0,
                "attrs": null
            },
            {
                "id": 4,
                "defaultImg": "http://47.93.148.192:8080/group1/M00/00/02/rBHu8l-sklaALrngAAHGDqdpFtU741.jpg",
                "title": "华为P40 5G【白条免息可选送豪礼】全网通智能手机 支持鸿蒙HarmonyOS 零度白 8G+128G",
                "price": 2323,
                "createTime": null,
                "tmId": null,
                "tmName": null,
                "category1Id": null,
                "category1Name": null,
                "category2Id": null,
                "category2Name": null,
                "category3Id": null,
                "category3Name": null,
                "hotScore": 0,
                "attrs": null
            },
            {
                "id": 5,
                "defaultImg": "http://139.198.127.41:9000/sph/20220422/9.jpg",
                "title": "Apple 13pro~~",
                "price": 99999,
                "createTime": null,
                "tmId": null,
                "tmName": null,
                "category1Id": null,
                "category1Name": null,
                "category2Id": null,
                "category2Name": null,
                "category3Id": null,
                "category3Name": null,
                "hotScore": 0,
                "attrs": null
            },
            {
                "id": 6,
                "defaultImg": "http://47.93.148.192:8080/group1/M00/00/02/rBHu8l-sklaALrngAAHGDqdpFtU741.jpg",
                "title": "华为 HUAWEI P40 麒麟990 5G SoC芯片 5000万超感知徕卡三摄 30倍数字变焦 8GB+128GB亮黑色全网通5G手机",
                "price": 4488,
                "createTime": null,
                "tmId": null,
                "tmName": null,
                "category1Id": null,
                "category1Name": null,
                "category2Id": null,
                "category2Name": null,
                "category3Id": null,
                "category3Name": null,
                "hotScore": 0,
                "attrs": null
            },
            {
                "id": 7,
                "defaultImg": "",
                "title": "121",
                "price": 232,
                "createTime": null,
                "tmId": null,
                "tmName": null,
                "category1Id": null,
                "category1Name": null,
                "category2Id": null,
                "category2Name": null,
                "category3Id": null,
                "category3Name": null,
                "hotScore": 0,
                "attrs": null
            },
            {
                "id": 8,
                "defaultImg": "http://47.93.148.192:8080/group1/M00/05/33/rBHu8mIx02-AQ29qAACQRhyoSv083.jpeg",
                "title": "淡淡的",
                "price": 50,
                "createTime": null,
                "tmId": null,
                "tmName": null,
                "category1Id": null,
                "category1Name": null,
                "category2Id": null,
                "category2Name": null,
                "category3Id": null,
                "category3Name": null,
                "hotScore": 0,
                "attrs": null
            },
            {
                "id": 9,
                "defaultImg": "http://47.93.148.192:8080/group1/M00/00/01/rBHu8l-rgJqAHPnoAAF9hoDNfsc505.jpg",
                "title": "Redmi 10X 4G Helio G85游戏芯 4800万超清四摄 5020mAh大电量 小孔全面屏 128GB大存储 4GB+128GB 明月灰 游戏智能手机 小米 红米",
                "price": 999,
                "createTime": null,
                "tmId": null,
                "tmName": null,
                "category1Id": null,
                "category1Name": null,
                "category2Id": null,
                "category2Name": null,
                "category3Id": null,
                "category3Name": null,
                "hotScore": 0,
                "attrs": null
            },
            {
                "id": 10,
                "defaultImg": "http://47.93.148.192:8080/group1/M00/00/02/rBHu8l-rgfWASR1YAADsOUYB-2g312.jpg",
                "title": "Apple iPhone 12 (A2404) 64GB 白色 支持移动联通电信5G 双卡双待手机",
                "price": 8197,
                "createTime": null,
                "tmId": null,
                "tmName": null,
                "category1Id": null,
                "category1Name": null,
                "category2Id": null,
                "category2Name": null,
                "category3Id": null,
                "category3Name": null,
                "hotScore": 0,
                "attrs": null
            }
        ],
        "total": 174,
        "pageSize": 10,
        "pageNo": 1,
        "totalPages": 18
    },
    "ok": true
}